{
  "appName": {
    "message": "Auto Vote Rating"
  },
  "appDesc": {
    "message": "Автоматичне голосування на рейтингах за проекти чи сервера (ігрові)"
  },
  "addButton": {
    "message": "Добавити"
  },
  "help": {
    "message": "Про розширення"
  },
  "fastAdd": {
    "message": "Швидке додавання"
  },
  "load": {
    "message": "Загрузка..."
  },
  "addedButton": {
    "message": "Додані"
  },
  "optionsButton": {
    "message": "Опції"
  },
  "addTitle": {
    "message": "Додавання нового проекту"
  },
  "yourNick": {
    "message": "Ваш нікнейм"
  },
  "enterNick": {
    "message": "Введіть нікнейм"
  },
  "enterNickOptional": {
    "message": "Введіть нікнейм (необов'язково)"
  },
  "siteTop": {
    "message": "Сайт рейтинга"
  },
  "selectTop": {
    "message": "Виберіть сайт"
  },
  "custom": {
    "message": "Кастомні"
  },
  "optionsExtension": {
    "message": "Опції розширення"
  },
  "settings": {
    "message": "Налаштування"
  },
  "disabledNotifStart": {
    "message": "Відключити сповіщення початку голосування"
  },
  "disabledNotifInfo": {
    "message": "Відключити сповіщення успішного голосування"
  },
  "disabledNotifWarn": {
    "message": "Відключили сповіщення попереджень"
  },
  "disabledNotifWarnTooltip": {
    "message": "Наприклад повідомлення про то що ви вже голосували (Це коли розширення намагалось проголосувати за проект але ви вже самі проголосували)"
  },
  "disabledNotifError": {
    "message": "Відключити сповіщення помилок"
  },
  "disabledCheckTime": {
    "message": "Відключити перевірку часу на старті розширення"
  },
  "disabledCheckInternet": {
    "message": "Відключити перевірку з'єднання інтернету"
  },
  "disabledOneVote": {
    "message": "Відключити одночасне голосування відразу на декількох сайтах"
  },
  "disabledFocusedTab": {
    "message": "Focused tab"
  },
  "disableCheckProjects": {
    "message": "Відключити перевірку"
  },
  "disableCheckProjectsTooltip": {
    "message": "Конче не рекомендується відключати цю перевірку, це може викликати помилки в розширені и може зламати механізм авто-голосування, ця настройка відключає перевірку при додаванні проекта, це відключає перевірку для MCRate (Як відомо там можно голосувати в день тільки за один проект) Також він відключає перевірку на авторизацію вк Даний параметр не зберігається при збереженні настроїк"
  },
  "priority": {
    "message": "Додавати в пріоритет"
  },
  "priorityTooltip": {
    "message": "При включенні даної опції та після додавання проекту, проект буде в пріоритеті, буде завжди найпершим голосувати та без затримки в 10 хвилин"
  },
  "enabledSilentVote": {
    "message": "Режим голосування"
  },
  "enabledSilentVoteTooltip": {
    "message": "Тихий режим (Рекомендується) — голосує за проекти повністю в фоновому режимі не відкриваючи вкладки. Режим эмуляції — эмулірує реального користувача, відкриває вкладку и нажимає на кнопку голосування, краще всього в даному режимі залишати хоча б одну відкриту вкладку в браузері, інакше вікно браузера буде відкрито поверх інших вікон і може викликати незручності."
  },
  "enabledSilentVoteSilent": {
    "message": "Тихий режим"
  },
  "enabledSilentVoteNoSilent": {
    "message": "Режим эмуляції"
  },
  "cooldown": {
    "message": "Таймаут голосування в мс між проектами для 1 рейтинга"
  },
  "cooldownError": {
    "message": "Таймаут в мс при помилці"
  },
  "setCooldown": {
    "message": "Встановити"
  },
  "settingsFile": {
    "message": "Експорт/Імпорт"
  },
  "importSettings": {
    "message": "Імпортувати налаштування"
  },
  "exportSettings": {
    "message": "Експортувати налаштування"
  },
  "exportLogs": {
    "message": "Експортувати логи"
  },
  "addedProjects": {
    "message": "Список вже добавлених вами проектів"
  },
  "notAddedAll": {
    "message": "Тут поки що ви нічого не добавили"
  },
  "notAdded": {
    "message": "Ви ще не добавили ні одного проекта на цей топ!"
  },
  "notAvailableInSilent": {
    "message": "За замовчуванням недоступний в тихому режимі голосування!"
  },
  "supportDev": {
    "message": "Підтримати розробника"
  },
  "firstInstall": {
    "message": "Дякуємо вам за встановку розширення. Для наступної роботи необхідно його налаштувати"
  },
  "firstSettings": {
    "message": "Генерую налаштування за замовчуванням..."
  },
  "firstSettingsSave": {
    "message": "Налаштування були успішно згенеровані по умолчанию та збережені"
  },
  "settingsGen": {
    "message": "Налаштування проектів згенеровані"
  },
  "settingsUpdate": {
    "message": "Обновляю налаштування за замовчуванням..."
  },
  "settingsUpdateEnd": {
    "message": "Налаштування проектів обновлені"
  },
  "settingsUpdateEnd2": {
    "message": "Налаштування були успішно обновлені за замовчуванням та збережені"
  },
  "confirmDisableErrors": {
    "message": "Ви дійсно хочете відключити сповіщення помилок? Якщо виникне якась проблема при голосуванні, розширення буде намагатися кожні 5 хвилин знову проголосувати. Якщо ви не будете отримувати помилки і не слідкувати за ними, розширення буде так нескінченно намагатися проголосовати, акуратніше з цим, вас можуть заблокувати за настільки часті спроби голосування"
  },
  "confirmDisableCheckProjects": {
    "message": "Ви дійсно хочете відключити перевірку при додаванні проекта? Якщо ви допустите помилку при додаванні проекта тоді це може привести до помилок"
  },
  "confirmPriority": {
    "message": "Ви дійсно хочете відключити пріоритет на додавання проекта? При включенні пріоритета можуть виникати проблеми з голосуванням якщо у вас буде не точний час на вашому пристрої. Встановіть точний час (точність до секунди) та слідкуйте за ним для коректного голосування з пріоритетом"
  },
  "deleteButton": {
    "message": "Видалити"
  },
  "nextVote": {
    "message": "Наступне голосування після:"
  },
  "inPriority": {
    "message": "У пріоритеті"
  },
  "adding": {
    "message": "Додаю..."
  },
  "lets": {
    "message": "Давай!"
  },
  "alreadyAdded": {
    "message": "Цей проект у вас вже доданий"
  },
  "oneProjectFairTop": {
    "message": "На FairTop можно голосувати тільки за 1 проект за раз, щоб голосувати за декілька проектів - забороніть сайту FairTop.in зберігать кукі файли, якщо не знаєте як це зробити - загугліть) Якщо ви заборонили зберігати кукі, відключіть перевірку при додаванні проекта в додаткових налаштуваннях та спробуйте знову добавити цей проект. Будьте уважні з ID проекта при додаванні проекта с відключеною перевіркою, розширення може прийняти проект с неіснуючим ID."
  },
  "oneProject": {
    "message": "На $project$ можно голосувати тільки за $count$ проект за раз",
    "placeholders": {
      "project": {
        "content": "$1"
      },
      "count": {
        "content": "$2"
      }
    }
  },
  "checkHasProject": {
    "message": "Перевіряю чи існує такий проект..."
  },
  "notConnectInternet": {
    "message": "Здається ви не підключені до інтернету або сайт не працює, подивіться подробиці в консолі"
  },
  "notFoundProjectCode": {
    "message": "Такого проекта не існує! Код стану HTTP: $code$ Перевірте правильність введеного ID (та інших параметрів якщо такі є)",
    "placeholders": {
      "code": {
        "content": "$1"
      }
    }
  },
  "notFoundProject": {
    "message": "Такого проекта не існує! Перевірте правильність введеного ID (та інших параметрів якщо такі є)"
  },
  "notFoundProjectRedirect": {
    "message": "Відбулась переадресація, скоріш за все такого проекта не існує! Перевірте URL: $url$ Також перевірте правильність введеного ID (та інших параметрів якщо такі є)",
    "placeholders": {
      "url": {
        "content": "$1"
      }
    }
  },
  "notConnectInternetVPN": {
    "message": "Здається ви не підключені до інтернету або сайт не працює (ви з України? Включіть VPN та тримайте його включеним в момент автоголосування), дивіться подробиці в консолі"
  },
  "authButton": {
    "message": "Авторизуватися"
  },
  "authVK": {
    "message": "Щоб голосувати на $project$ потрібна авторизація через ВК",
    "placeholders": {
      "project": {
        "content": "$1"
      }
    }
  },
  "notConnect": {
    "message": "Не вдалось з'єднатися з $url$, код стану HTTP: $code$",
    "placeholders": {
      "url": {
        "content": "$1"
      },
      "code": {
        "content": "$2"
      }
    }
  },
  "checkHasProjectSuccess": {
    "message": "Перевірка на існування проекта відбулась"
  },
  "checkAuthVK": {
    "message": "Перевіряю авторизаціцю вк..."
  },
  "checkAuthVKSuccess": {
    "message": "Перевірка на авторизацію вк відбулась"
  },
  "addSuccess": {
    "message": "Успішно доданий"
  },
  "warnSilentVote": {
    "message": "Звертаємо вашу увагу що $top$ недоступний у режимі тихого голосування",
    "placeholders": {
      "top": {
        "content": "$1"
      }
    }
  },
  "cooldownChanged": {
    "message": "Щоб зміни вступили в силу розширення потрібно перезапустити, при перезапуску налаштування будуть закриті, їх потрібно буде власноруч знову відкриии. Перезапустити розширення?"
  },
  "storageError": {
    "message": "Відбулась помилка при читанні налаштувань: $error",
    "placeholders": {
      "error": {
        "content": "$1"
      }
    }
  },
  "saving": {
    "message": "Зберігаю..."
  },
  "storageErrorSave": {
    "message": "Відбулась помилка при зберіганні налаштувань: $error$",
    "placeholders": {
      "error": {
        "content": "$1"
      }
    }
  },
  "successSave": {
    "message": "Налаштування успішно збережені"
  },
  "bodyFetch": {
    "message": "Тіло запроса"
  },
  "urlFetch": {
    "message": "URL запроса"
  },
  "delayFetch": {
    "message": "Затримка в мілісекундах"
  },
  "name": {
    "message": "Назва"
  },
  "enterName": {
    "message": "Придумайте назву"
  },
  "exporting": {
    "message": "Експортую..."
  },
  "exportingEnd": {
    "message": "Експорт успішно завершений"
  },
  "importing": {
    "message": "Імпортую налаштування..."
  },
  "importingEnd": {
    "message": "Імпорт налаштувань успішно завершений"
  },
  "disableNotifInfo": {
    "message": "Сповіщення успішного голосування відключені"
  },
  "disableNotifWarn": {
    "message": "Сповіщення попереджень відключені"
  },
  "disableNotifStart": {
    "message": "Сповіщення початку голосування відключені"
  },
  "retry": {
    "message": "Попробувати ще раз"
  },
  "successFastAdd": {
    "message": "Розширення було успішно налаштовано!"
  },
  "closeTab": {
    "message": "Хочете закрити дану вкладку?"
  },
  "closeTabButton": {
    "message": "Закрити вкладку"
  },
  "projectIDTooltip": {
    "message": " проекта можно получити з адресного рядка находячись на сторінці проекта, наприклад: "
  },
  "gameIDTooltip": {
    "message": " ігри можно получить з адресного рядка находячись на сторінці проекта, наприклад: "
  },
  "inputProjectID": {
    "message": "Введіть ID"
  },
  "inputProjectIDOrList": {
    "message": "Виберіть зі списку ID або введіть свій"
  },
  "developers": {
    "message": "Розробники:"
  },
  "developer": {
    "message": "Розробник:"
  },
  "designer": {
    "message": "Дизайнер:"
  },
  "itsFree": {
    "message": "Розширення поширюється абсолютно безкоштовно!"
  },
  "feedback": {
    "message": "Якщо ви маєте якісь питання чи проблеми, не соромтеся, звертайтесь до нас в "
  },
  "feedback2": {
    "message": "або в підтримку в "
  },
  "feedback3": {
    "message": "або до мене на "
  },
  "dmDiscord": {
    "message": "діскорд"
  },
  "dmChromeWebStore": {
    "message": "інтернет-магазин chrome"
  },
  "email": {
    "message": "Електронну пошту"
  },
  "internetRestored": {
    "message": "Підключення до інтернету відновлено"
  },
  "internetDisconected": {
    "message": "Прийшов час голосовати але зникло з'єднання з інтернетом, очікую коли відновиться підключення до інтернету..."
  },
  "startedAutoVote": {
    "message": "Починає авто-голосувати"
  },
  "successAutoVote": {
    "message": "Успішне авто-голосування"
  },
  "alreadyVoted": {
    "message": "Ви вже голосували"
  },
  "errorOpenTab": {
    "message": "Помилка при відритті вкладки: "
  },
  "errorAuthVK": {
    "message": "Помилка авторизації ВК! $error$",
    "placeholders": {
      "error": {
        "content": "$1"
      }
    }
  },
  "errorRedirected": {
    "message": "Помилка голосування! Відбулась переадресація на невідомий сайт: $url$ Перевірте даний URL",
    "placeholders": {
      "url": {
        "content": "$1"
      }
    }
  },
  "errorVote": {
    "message": "Помилка голосування! Код стану HTTP: $code$ URL: $url$",
    "placeholders": {
      "code": {
        "content": "$1"
      },
      "url": {
        "content": "$2"
      }
    }
  },
  "errorVoteNoElement": {
    "message": "Помилка голосування, здається якийсь потрібний елемент/кнопка відсутні. Повідомте розробнику розширення про дану помилку"
  },
  "errorVoteNoElement2": {
    "message": "Ошибка! Кажется какой-то нужный элемент (кнопка или поле ввода) отсутствует. Вот что известно: $error$. Сообщите разработчику расширения о данной ошибке",
    "placeholders": {
      "error": {
        "content": "$1"
      }
    }
  },
  "errorVoteNoNick": {
    "message": "Помилка голосування! Відбулось перенаправлення/переадресація на невідомий сайт: $url$ Перевірте даний URL",
    "placeholders": {
      "url": {
        "content": "$1"
      }
    }
  },
  "errorVoteNoNick2": {
    "message": "Непередбачувана помилка, не вдалось найти проект. URL: $url$",
    "placeholders": {
      "url": {
        "content": "$1"
      }
    }
  },
  "errorVoteUnknown": {
    "message": "Помилка при голосуванні! Ось що відомо: "
  },
  "errorVoteNetwork": {
    "message": "Помилка при голосуванні! Код помилки: $code$ URL: $url$",
    "placeholders": {
      "code": {
        "content": "$1"
      },
      "url": {
        "content": "$2"
      }
    }
  },
  "errorNextVote": {
    "message": "Наступна спроба проголосувати буде зроблена через $minutes$ хвилин",
    "placeholders": {
      "minutes": {
        "content": "$1"
      }
    }
  },
  "timeStamp": {
    "message": "мітка часу встановлена на"
  },
  "errorClock": {
    "message": "Не вдалось зв'язатися з сервером api.cifrazia.com, $error$ Якщо у вас неправильно встановлено час на комп'ютері - розширення буде не коректно працювати",
    "placeholders": {
      "error": {
        "content": "$1"
      }
    }
  },
  "errorClock2": {
    "message": "Не вдалось зв'язатися с сервером api.cifrazia.com, Код стану HTTP: $httpCode$. Якщо у вас неправильно встановлено час на комп'ютері - розширення буде не коректно працювати",
    "placeholders": {
      "httpCode": {
        "content": "$1"
      }
    }
  },
  "clockHurry": {
    "message": "спішать"
  },
  "clockLagging": {
    "message": "відстають"
  },
  "clockHourns": {
    "message": "годин"
  },
  "clockMinutes": {
    "message": "хвилин"
  },
  "clockInaccurate": {
    "message": "Здається ваші години $inaccurate$ на $count$ $unit$. Розширення будет некоректно працювати, будь ласка налаштуйте час правильно",
    "placeholders": {
      "inaccurate": {
        "content": "$1"
      },
      "count": {
        "content": "$2"
      },
      "unit": {
        "content": "$3"
      }
    }
  },
  "clockInaccurateLog": {
    "message": "Ваші години $text$!",
    "placeholders": {
      "text": {
        "content": "$1"
      }
    }
  },
  "errorVoteUnknown2": {
    "message": "Непередбачуванн помилка! Немає повідомлення про помилку"
  },
  "projectID": {
    "message": "ID проекта"
  },
  "firstAddSettings": {
    "message": "Додаткові налаштування згенеровані"
  },
  "secondBonus": {
    "message": "На $project$ потрібно ще забирати нагороду за голосування, давай це також автоматизуем?",
    "placeholders": {
      "project": {
        "content": "$1"
      }
    }
  },
  "redirectedSecondBonus": {
    "message": "Відбулась переадресація на $url$, схоже ви не авторизовані на даному сайті або тут інша проблема. Перевірте даний URL",
    "placeholders": {
      "url": {
        "content": "$1"
      }
    }
  },
  "dailyBonus": {
    "message": "Щоденний бонус"
  },
  "donate": {
    "message": "https://my.qiwi.com/Sergei-EV-7E02hYH"
  },
  "countVote": {
    "message": "Скільки в день робити голосів"
  },
  "warnSilentVoteTooltip": {
    "message": "Даний рейтинг буде працювати завжди в режиме эмуляції (незалежно від налаштувань режима голосування). Це зроблено тому що на даному топі діє ReCaptcha яку неможливо обійти. Не рекомендуємо добавляти більше 1-го проекта на один топ де діє ReCaptcha. ReCaptcha діє на основі довіри, якщо будете занадто часто її проходити тоді ReCaptcha може попросити пройти її (вибрать малюнок де зображено щось) чого дане розширення не вміє робити. Також якщо ви сидите з проксі чи VPN то довіри від ReCaptcha може і не бути"
  },
  "requiresCaptcha": {
    "message": "Потрібне ручне проходження капчі"
  },
  "authSteam": {
    "message": "Steam login required"
  },
  "privacyPass": {
    "message": "Встановіть розширення "
  },
  "privacyPass2": {
    "message": " щоб при першому проходженні капчі получити 5 безкоштовних прохождень капч для hCaptcha"
  },
  "privacyPass3": {
    "message": "Або зареєструйтесь на "
  },
  "privacyPass4": {
    "message": " та слідуйте інструкції. Після того яу встановите кукі на hCaptcha, установіть любе розширення яке може редагувати кукі в браузері, наприклад "
  },
  "privacyPass5": {
    "message": " та продовжіть термін дії всіх кукі для домена hcaptcha.com на декілька років"
  },
  "this": {
    "message": "це"
  },
  "randomize": {
    "message": "Рандомізувати наступне голосовання"
  },
  "randomizeTooltip": {
    "message": "У вказаних межах буде рандомізуватися час наступного голосовання, це в основному потрібно щоб адміністраторам сервера складніше було здогадатися що ви використовуєте авто-голосування"
  },
  "inRandomize": {
    "message": "У рандомі"
  },
  "soon": {
    "message": "Скоро..."
  },
  "inQueue": {
    "message": "У черзі на голосування..."
  },
  "now": {
    "message": "Прямо зараз йде голосування"
  },
  "timeout": {
    "message": "Час очікування голосування закінчився, перезапускаю голосування"
  },
  "chooseLang": {
    "message": "Виберіть мову/регіон"
  },
  "chooseGame": {
    "message": "Введіть ID ігри чи виберіть зі списку"
  },
  "chooseGameURL": {
    "message": "Введіть URL ігри чи виберіть із списку"
  },
  "idGame": {
    "message": "ID ігри"
  },
  "urlGame": {
    "message": "URL ігри"
  },
  "stats": {
    "message": "Статистика $project$",
    "placeholders": {
      "project": {
        "content": "$1"
      }
    }
  },
  "stats2": {
    "message": "Статистика"
  },
  "statsSuccessVotes": {
    "message": "Успішні голоси"
  },
  "statsMonthSuccessVotes": {
    "message": "За цей місяць успішних голосів"
  },
  "statsLastMonthSuccessVotes": {
    "message": "За минулий місяць успішних голосів"
  },
  "statsErrorVotes": {
    "message": "Помилок"
  },
  "statsLaterVotes": {
    "message": "Помилок 'Ви вже голосували'"
  },
  "statsLastSuccessVote": {
    "message": "Останній успішний голос"
  },
  "statsLastAttemptVote": {
    "message": "Остання спроба голосування"
  },
  "statsAdded": {
    "message": "Доданий"
  },
  "statsInstalled": {
    "message": "Встановлений"
  },
  "generalStats": {
    "message": "Загальна статистика"
  },
  "todayStats": {
    "message": "Статистика за сьогодні"
  },
  "selectTime": {
    "message": "Виберіть який тайм-аут використовувати"
  },
  "timeoutMS": {
    "message": "Через задану затримку в мс з моменту останнього голоса"
  },
  "timeoutHour": {
    "message": "Після заданого часу (раз в день)"
  },
  "chooseHour": {
    "message": "Задайте годину"
  },
  "advSettings": {
    "message": "Додаткові параметри:"
  },
  "customTimeOut": {
    "message": "Кастомізувати час наступного голосування (тайм-аут)"
  },
  "lastDayMonth": {
    "message": "Застосовувати кастомний тайм-аут тільки останнього числа місяця"
  },
  "customTimeOut2": {
    "message": "Кастомний тайм-аут"
  },
  "lastDayMonth2": {
    "message": "в останній день місяця"
  },
  "scheduleTime": {
    "message": "Запланувати голосування"
  },
  "discordLogIn": {
    "message": "Ви повинні авторизуватися, щоб голосувати за ботів діскорда!"
  },
  "auth": {
    "message": "В даному рейтингу тільки зареєстровані користувачі можуть голосувати. Увійдіть або зареєструйтесь будь ласка."
  },
  "emptySite": {
    "message": "Здається даний рейтинг видав пусту сторінку, спробуйте зайти на сайт цього рейтинга і після цього знову попробувати добавити"
  },
  "ordinalWorld": {
    "message": "Порядковий номер світу"
  },
  "ordinalWorldTooltip": {
    "message": "Порядковий номер світу це номер по порядку який розташований у списку вибору світів при голосуванні"
  },
  "requiredNick": {
    "message": "А де нікнейм? Тут немає кнопки авторизації steam а це означає що потрібний нікнейм і в даному випадку він обяв'язковий"
  },
  "alertCaptcha": {
    "message": "В даному рейтингу є капча яку розширення не може пройти, вам буде потрібно власноруч її проходити, розширення буде вас сповіщати об сповіщеннях про необхідність пройти капчу."
  },
  "chooseTopGG": {
    "message": "За що голосуємо?"
  },
  "bots": {
    "message": "Боти"
  },
  "guilds": {
    "message": "Сервери"
  },
  "servers": {
    "message": "Сервери"
  },
  "serversMinecraftRating": {
    "message": "Сервери (немає нагороди за голосування)"
  },
  "projects": {
    "message": "Проекти"
  },
  "additionTopGG": {
    "message": "Додаткові параметри (необов'язково)"
  },
  "emptyError": {
    "message": "Пуста помилка"
  },
  "notificationsDisabled": {
    "message": "Сповіщення відключені або розширення немає доступа до них! Ви можете пропустити важливі сповіщення від даного розширення про помилки чи попередження!"
  },
  "errorAttemptVote": {
    "message": "Перевищено максимальну кількість спроб голосування, $error$",
    "placeholders": {
      "error": {
        "content": "$1"
      }
    }
  },
  "notFast": {
    "message": "Не так швидко, дочейкайся виконання функції"
  },
  "voteMode": {
    "message": "Виставити примусово режим голосування"
  },
  "start": {
    "message": "Запуск розширення, v$version$",
    "placeholders": {
      "version": {
        "content": "$1"
      }
    }
  },
  "suspended": {
    "message": "Розширення зупинено"
  },
  "errordb": {
    "message": "Помилка з базою даних $db$, $error$",
    "placeholders": {
      "db": {
        "content": "$1"
      },
      "error": {
        "content": "$2"
      }
    }
  },
  "errordbTitle": {
    "message": "Помилка з базою даних $db$",
    "placeholders": {
      "db": {
        "content": "$1"
      }
    }
  },
  "errorSelectSiteRating": {
    "message": "Неправильно вказаний 'Сайт рейтинга', виберіть потрібний зі списку"
  },
  "clearLogs": {
    "message": "Очистити логи"
  },
  "clearingLogs": {
    "message": "Очищаємо логи"
  },
  "clearedLogs": {
    "message": "Логи успішно очищені"
  },
  "deleteAll": {
    "message": "Видалити все"
  },
  "deleteAllRating": {
    "message": "Ви дійсно хочете видалити всі додані проекти на цей рейтинг?"
  },
  "notGrantUrl": {
    "message": "Ви не надали доступ розширення рейтингу(ам), добавлення неможливо"
  },
  "grantUrl": {
    "message": "Надайте розширенню доступ рейтингу(ам) для голосування"
  },
  "grant": {
    "message": "Надати"
  },
  "permissions": {
    "message": "Права"
  },
  "granted": {
    "message": "Надані"
  },
  "notgranted": {
    "message": "Не надані"
  },
  "oldSettings": {
    "message": "Знайдені налаштування старої версії $old$, оновлюю їх до нової версії $new$",
    "placeholders": {
      "old": {
        "content": "$1"
      },
      "new": {
        "content": "$2"
      }
    }
  },
  "randomizeInput": {
    "message": "Вкажіть межі рандомізації (мінімум та максимум) в мілісекундах"
  },
  "errorCaptcha": {
    "message": "Помилка з капчею: $error$",
    "placeholders": {
      "error": {
        "content": "$1"
      }
    }
  },
  "passageCaptcha": {
    "message": "Попередження! На цьому рейтингу діє reCAPTCHA/hCaptcha, якщо вас часто запитує пройти власноруч капчу (вибрати малюнки), ви можете дізнатися як вирішити цю проблему "
  },
  "here": {
    "message": "тут"
  },
  "notRegVK":{
    "message": "Реєстрація даного аккаунта не закінчена (не вказаний номер телефона)"
  },
  "version": {
    "message": "Версія: "
  },
  "min": {
    "message": "Мінімум"
  },
  "max": {
    "message": "Максимум"
  },
  "translated": {
    "message": "Перевів на Українську: k1ngm7n (Олег) & NeStell"
  },
  "notSupportedGroupTabs": {
    "message": "Здається ваш браузер не підтримує групування вкладок: $error$",
    "placeholders": {
      "error": {
        "content": "$1"
      }
    }
  },
  "projectDeleted": {
    "message": "Проект видалено Користувачем"
  }
}